module image-infra

go 1.18

require (
	cloud.google.com/go/storage v1.22.1
	github.com/h2non/bimg v1.1.9
)

require (
	cloud.google.com/go v0.102.0 // indirect
	cloud.google.com/go/compute v1.6.1 // indirect
	cloud.google.com/go/iam v0.3.0 // indirect
	github.com/golang/groupcache v0.0.0-20210331224755-41bb18bfe9da // indirect
	github.com/golang/protobuf v1.5.2 // indirect
	github.com/google/go-cmp v0.5.8 // indirect
	github.com/google/uuid v1.3.0 // indirect
	github.com/googleapis/gax-go/v2 v2.4.0 // indirect
	github.com/googleapis/go-type-adapters v1.0.0 // indirect
	go.opencensus.io v0.23.0 // indirect
	golang.org/x/net v0.0.0-20220526153639-5463443f8c37 // indirect
	golang.org/x/oauth2 v0.0.0-20220524215830-622c5d57e401 // indirect
	golang.org/x/sys v0.0.0-20220520151302-bc2c85ada10a // indirect
	golang.org/x/text v0.3.7 // indirect
	golang.org/x/xerrors v0.0.0-20220517211312-f3a8303e98df // indirect
	google.golang.org/api v0.81.0 // indirect
	google.golang.org/appengine v1.6.7 // indirect
	google.golang.org/genproto v0.0.0-20220527130721-00d5c0f3be58 // indirect
	google.golang.org/grpc v1.46.2 // indirect
	google.golang.org/protobuf v1.28.0 // indirect
)
